{
    "KPlugin": {
        "Name": "Quick Commands",
        "Name[ar]": "الأوامر السريعة",
        "Name[az]": "Sürətli əmrlər",
        "Name[ca@valencia]": "Ordres ràpides",
        "Name[ca]": "Ordres ràpides",
        "Name[de]": "Schnellbefehle",
        "Name[en_GB]": "Quick Commands",
        "Name[es]": "Órdenes rápidas",
        "Name[fi]": "Pikakomennot",
        "Name[fr]": "Commandes rapides",
        "Name[ia]": "Commandos rapide",
        "Name[id]": "Perintah Cepat",
        "Name[it]": "Comandi rapidi",
        "Name[ko]": "빠른 명령",
        "Name[nl]": "Snelle commando's",
        "Name[nn]": "Snøggkommandoar",
        "Name[pl]": "Szybkie polecenia",
        "Name[pt]": "Comandos Rápidos",
        "Name[pt_BR]": "Comandos rápidos",
        "Name[ro]": "Comenzi rapide",
        "Name[sk]": "Rýchle príkazy",
        "Name[sl]": "Hitri ukazi",
        "Name[sv]": "Snabbkommandon",
        "Name[tr]": "Hızlı Komutlar",
        "Name[uk]": "Швидкі команди",
        "Name[x-test]": "xxQuick Commandsxx",
        "Name[zh_CN]": "快速命令"
    }
}
